Project 1
…
#Lag selection using AIC/BIC
fit_by_K <- function(K) {
  Xlags <- make_lags(df2$d_fedfunds, K = K, prefix = "dff")
  dm <- bind_cols(df2, Xlags) %>% drop_na()
  lag_terms <- paste0("dff_L", 0:K, collapse = " + ")
  fml <- as.formula(paste("d_unrate ~", lag_terms, "+ infl"))
  fit <- lm(fml, data = dm)
  tibble(K = K, AIC = AIC(fit), BIC = BIC(fit))
}

ic_tbl <- map_dfr(0:18, fit_by_K)
ic_tbl %>% arrange(BIC) %>% print(n = 10)

# A tibble: 19 × 3
       K   AIC   BIC
   <int> <dbl> <dbl>
 1     2  541.  564.
 2     3  542.  568.
 3     4  542.  572.
 4     5  539.  572.
 5     6  538.  575.
 6     9  528.  577.
 7     7  539.  580.
 8    10  528.  580.
 9     8  537.  581.
10    11  529.  585.
# ℹ 9 more rows
# ℹ Use `print(n = ...)` to see more rows
…
